scoreboard objectives add money_payout dummy "Money payouts"
scoreboard objectives add money_delay dummy "Money delay"
scoreboard objectives add money_delay_tmp dummy "Money delay tmp"

function money:loop
