{
  "ColorReference": {
    "lit_air_weight_average_color": {
      "r": 0,
      "g": 0,
      "b": 0,
      "a": 60
    },
    "lit_water_weight_average_color": {
      "r": 0,
      "g": 0,
      "b": 0,
      "a": 60
    },
    "lit_cave_air_weight_average_color": {
      "r": 0,
      "g": 0,
      "b": 0,
      "a": 60
    }
  },
  "LightBlock": [
    {
      "block": "dynamiclights:lit_air",
      "color": "#lit_air_weight_average_color",
      "radius": 15
    },
    {
      "block": "dynamiclights:lit_water",
      "color": "#lit_water_weight_average_color",
      "radius": 15,
      "state": {
        "level": "0"
      }
    },
    {
      "block": "dynamiclights:lit_water",
      "color": "#lit_water_weight_average_color",
      "radius": 15,
      "state": {
        "level": "1"
      }
    },
    {
      "block": "dynamiclights:lit_water",
      "color": "#lit_water_weight_average_color",
      "radius": 15,
      "state": {
        "level": "2"
      }
    },
    {
      "block": "dynamiclights:lit_water",
      "color": "#lit_water_weight_average_color",
      "radius": 15,
      "state": {
        "level": "3"
      }
    },
    {
      "block": "dynamiclights:lit_water",
      "color": "#lit_water_weight_average_color",
      "radius": 15,
      "state": {
        "level": "4"
      }
    },
    {
      "block": "dynamiclights:lit_water",
      "color": "#lit_water_weight_average_color",
      "radius": 15,
      "state": {
        "level": "5"
      }
    },
    {
      "block": "dynamiclights:lit_water",
      "color": "#lit_water_weight_average_color",
      "radius": 15,
      "state": {
        "level": "6"
      }
    },
    {
      "block": "dynamiclights:lit_water",
      "color": "#lit_water_weight_average_color",
      "radius": 15,
      "state": {
        "level": "7"
      }
    },
    {
      "block": "dynamiclights:lit_water",
      "color": "#lit_water_weight_average_color",
      "radius": 15,
      "state": {
        "level": "8"
      }
    },
    {
      "block": "dynamiclights:lit_water",
      "color": "#lit_water_weight_average_color",
      "radius": 15,
      "state": {
        "level": "9"
      }
    },
    {
      "block": "dynamiclights:lit_water",
      "color": "#lit_water_weight_average_color",
      "radius": 15,
      "state": {
        "level": "10"
      }
    },
    {
      "block": "dynamiclights:lit_water",
      "color": "#lit_water_weight_average_color",
      "radius": 15,
      "state": {
        "level": "11"
      }
    },
    {
      "block": "dynamiclights:lit_water",
      "color": "#lit_water_weight_average_color",
      "radius": 15,
      "state": {
        "level": "12"
      }
    },
    {
      "block": "dynamiclights:lit_water",
      "color": "#lit_water_weight_average_color",
      "radius": 15,
      "state": {
        "level": "13"
      }
    },
    {
      "block": "dynamiclights:lit_water",
      "color": "#lit_water_weight_average_color",
      "radius": 15,
      "state": {
        "level": "14"
      }
    },
    {
      "block": "dynamiclights:lit_water",
      "color": "#lit_water_weight_average_color",
      "radius": 15,
      "state": {
        "level": "15"
      }
    },
    {
      "block": "dynamiclights:lit_cave_air",
      "color": "#lit_cave_air_weight_average_color",
      "radius": 15
    }
  ],
  "Bloom": [
    {
      "block": "dynamiclights:lit_air"
    },
    {
      "block": "dynamiclights:lit_water",
      "state": {
        "level": "0"
      }
    },
    {
      "block": "dynamiclights:lit_water",
      "state": {
        "level": "1"
      }
    },
    {
      "block": "dynamiclights:lit_water",
      "state": {
        "level": "2"
      }
    },
    {
      "block": "dynamiclights:lit_water",
      "state": {
        "level": "3"
      }
    },
    {
      "block": "dynamiclights:lit_water",
      "state": {
        "level": "4"
      }
    },
    {
      "block": "dynamiclights:lit_water",
      "state": {
        "level": "5"
      }
    },
    {
      "block": "dynamiclights:lit_water",
      "state": {
        "level": "6"
      }
    },
    {
      "block": "dynamiclights:lit_water",
      "state": {
        "level": "7"
      }
    },
    {
      "block": "dynamiclights:lit_water",
      "state": {
        "level": "8"
      }
    },
    {
      "block": "dynamiclights:lit_water",
      "state": {
        "level": "9"
      }
    },
    {
      "block": "dynamiclights:lit_water",
      "state": {
        "level": "10"
      }
    },
    {
      "block": "dynamiclights:lit_water",
      "state": {
        "level": "11"
      }
    },
    {
      "block": "dynamiclights:lit_water",
      "state": {
        "level": "12"
      }
    },
    {
      "block": "dynamiclights:lit_water",
      "state": {
        "level": "13"
      }
    },
    {
      "block": "dynamiclights:lit_water",
      "state": {
        "level": "14"
      }
    },
    {
      "block": "dynamiclights:lit_water",
      "state": {
        "level": "15"
      }
    },
    {
      "block": "dynamiclights:lit_cave_air"
    }
  ],
  "LightItem": []
}