{
  "ColorReference": {
    "willow_torch_weight_average_color": {
      "r": 190,
      "g": 212,
      "b": 233,
      "a": 170
    },
    "cincinnasite_lantern_weight_average_color": {
      "r": 246,
      "g": 170,
      "b": 55,
      "a": 170
    },
    "cincinnasite_lantern_small_weight_average_color": {
      "r": 236,
      "g": 162,
      "b": 45,
      "a": 170
    },
    "nether_redstone_ore_weight_average_color": {
      "r": 197,
      "g": 61,
      "b": 48,
      "a": 170
    },
    "blue_weeping_obsidian_weight_average_color": {
      "r": 27,
      "g": 111,
      "b": 228,
      "a": 170
    },
    "weeping_obsidian_weight_average_color": {
      "r": 141,
      "g": 16,
      "b": 231,
      "a": 170
    },
    "blue_crying_obsidian_weight_average_color": {
      "r": 19,
      "g": 87,
      "b": 194,
      "a": 170
    },
    "lucis_spore_weight_average_color": {
      "r": 216,
      "g": 208,
      "b": 96,
      "a": 170
    },
    "giant_lucis_weight_average_color": {
      "r": 247,
      "g": 176,
      "b": 49,
      "a": 170
    },
    "giant_mold_sapling_weight_average_color": {
      "r": 206,
      "g": 180,
      "b": 167,
      "a": 170
    },
    "jellyfish_mushroom_sapling_weight_average_color": {
      "r": 182,
      "g": 149,
      "b": 246,
      "a": 170
    },
    "eye_seed_weight_average_color": {
      "r": 191,
      "g": 160,
      "b": 159,
      "a": 170
    },
    "golden_vine_weight_average_color": {
      "r": 242,
      "g": 196,
      "b": 48,
      "a": 170
    },
    "ink_bush_seed_weight_average_color": {
      "r": 119,
      "g": 63,
      "b": 45,
      "a": 170
    },
    "black_apple_seed_weight_average_color": {
      "r": 220,
      "g": 144,
      "b": 21,
      "a": 170
    },
    "neon_equisetum_weight_average_color": {
      "r": 142,
      "g": 111,
      "b": 225,
      "a": 170
    },
    "hook_mushroom_weight_average_color": {
      "r": 223,
      "g": 132,
      "b": 183,
      "a": 170
    },
    "whispering_gourd_lantern_weight_average_color": {
      "r": 124,
      "g": 109,
      "b": 212,
      "a": 170
    },
    "pig_statue_respawner_weight_average_color": {
      "r": 219,
      "g": 154,
      "b": 63,
      "a": 170
    },
    "geyser_weight_average_color": {
      "r": 225,
      "g": 113,
      "b": 32,
      "a": 170
    },
    "glowstone_stalactite_weight_average_color": {
      "r": 233,
      "g": 200,
      "b": 142,
      "a": 170
    },
    "blackstone_furnace_weight_average_color": {
      "r": 238,
      "g": 125,
      "b": 15,
      "a": 170
    },
    "basalt_furnace_weight_average_color": {
      "r": 230,
      "g": 125,
      "b": 21,
      "a": 170
    },
    "netherrack_furnace_weight_average_color": {
      "r": 226,
      "g": 118,
      "b": 20,
      "a": 170
    },
    "cincinnasite_forge_weight_average_color": {
      "r": 235,
      "g": 136,
      "b": 36,
      "a": 170
    },
    "nether_brewing_stand_weight_average_color": {
      "r": 228,
      "g": 155,
      "b": 52,
      "a": 170
    },
    "rubeus_cone_weight_average_color": {
      "r": 72,
      "g": 153,
      "b": 214,
      "a": 170
    },
    "nether_sakura_leaves_weight_average_color": {
      "r": 216,
      "g": 104,
      "b": 136,
      "a": 170
    },
    "soul_lily_sapling_weight_average_color": {
      "r": 211,
      "g": 117,
      "b": 46,
      "a": 170
    },
    "lucis_mushroom_weight_average_color": {
      "r": 226,
      "g": 214,
      "b": 107,
      "a": 170
    },
    "jellyfish_mushroom_weight_average_color": {
      "r": 173,
      "g": 192,
      "b": 195,
      "a": 170
    },
    "eyeball_weight_average_color": {
      "r": 200,
      "g": 177,
      "b": 177,
      "a": 170
    },
    "eyeball_small_weight_average_color": {
      "r": 193,
      "g": 164,
      "b": 164,
      "a": 170
    },
    "lumabus_seed_weight_average_color": {
      "r": 61,
      "g": 221,
      "b": 202,
      "a": 170
    },
    "golden_lumabus_seed_weight_average_color": {
      "r": 86,
      "g": 220,
      "b": 148,
      "a": 170
    }
  },
  "LightBlock": [
    {
      "block": "betternether:willow_torch",
      "color": "#willow_torch_weight_average_color",
      "radius": 14
    },
    {
      "block": "betternether:cincinnasite_lantern",
      "color": "#cincinnasite_lantern_weight_average_color",
      "radius": 15
    },
    {
      "block": "betternether:cincinnasite_lantern_small",
      "color": "#cincinnasite_lantern_small_weight_average_color",
      "radius": 15
    },
    {
      "block": "betternether:nether_redstone_ore",
      "color": "#nether_redstone_ore_weight_average_color",
      "radius": 9,
      "state": {
        "lit": "true"
      }
    },
    {
      "block": "betternether:blue_weeping_obsidian",
      "color": "#blue_weeping_obsidian_weight_average_color",
      "radius": 14
    },
    {
      "block": "betternether:weeping_obsidian",
      "color": "#weeping_obsidian_weight_average_color",
      "radius": 14
    },
    {
      "block": "betternether:blue_crying_obsidian",
      "color": "#blue_crying_obsidian_weight_average_color",
      "radius": 10
    },
    {
      "block": "betternether:lucis_spore",
      "color": "#lucis_spore_weight_average_color",
      "radius": 6
    },
    {
      "block": "betternether:giant_lucis",
      "color": "#giant_lucis_weight_average_color",
      "radius": 15
    },
    {
      "block": "betternether:giant_mold_sapling",
      "color": "#giant_mold_sapling_weight_average_color",
      "radius": 6
    },
    {
      "block": "betternether:jellyfish_mushroom_sapling",
      "color": "#jellyfish_mushroom_sapling_weight_average_color",
      "radius": 8
    },
    {
      "block": "betternether:eye_seed",
      "color": "#eye_seed_weight_average_color",
      "radius": 9
    },
    {
      "block": "betternether:golden_vine",
      "color": "#golden_vine_weight_average_color",
      "radius": 15
    },
    {
      "block": "betternether:ink_bush_seed",
      "color": "#ink_bush_seed_weight_average_color",
      "radius": 10
    },
    {
      "block": "betternether:black_apple_seed",
      "color": "#black_apple_seed_weight_average_color",
      "radius": 9
    },
    {
      "block": "betternether:neon_equisetum",
      "color": "#neon_equisetum_weight_average_color",
      "radius": 15
    },
    {
      "block": "betternether:hook_mushroom",
      "color": "#hook_mushroom_weight_average_color",
      "radius": 12
    },
    {
      "block": "betternether:whispering_gourd_lantern",
      "color": "#whispering_gourd_lantern_weight_average_color",
      "radius": 15
    },
    {
      "block": "betternether:pig_statue_respawner",
      "color": "#pig_statue_respawner_weight_average_color",
      "radius": 15
    },
    {
      "block": "betternether:geyser",
      "color": "#geyser_weight_average_color",
      "radius": 10
    },
    {
      "block": "betternether:glowstone_stalactite",
      "color": "#glowstone_stalactite_weight_average_color",
      "radius": 14
    },
    {
      "block": "betternether:blackstone_furnace",
      "color": "#blackstone_furnace_weight_average_color",
      "radius": 13,
      "state": {
        "lit": "true"
      }
    },
    {
      "block": "betternether:basalt_furnace",
      "color": "#basalt_furnace_weight_average_color",
      "radius": 13,
      "state": {
        "lit": "true"
      }
    },
    {
      "block": "betternether:netherrack_furnace",
      "color": "#netherrack_furnace_weight_average_color",
      "radius": 13,
      "state": {
        "lit": "true"
      }
    },
    {
      "block": "betternether:cincinnasite_forge",
      "color": "#cincinnasite_forge_weight_average_color",
      "radius": 13,
      "state": {
        "lit": "true"
      }
    },
    {
      "block": "betternether:nether_brewing_stand",
      "color": "#nether_brewing_stand_weight_average_color",
      "radius": 1
    },
    {
      "block": "betternether:rubeus_cone",
      "color": "#rubeus_cone_weight_average_color",
      "radius": 15
    },
    {
      "block": "betternether:nether_sakura_leaves",
      "color": "#nether_sakura_leaves_weight_average_color",
      "radius": 13
    },
    {
      "block": "betternether:soul_lily_sapling",
      "color": "#soul_lily_sapling_weight_average_color",
      "radius": 9
    },
    {
      "block": "betternether:lucis_mushroom",
      "color": "#lucis_mushroom_weight_average_color",
      "radius": 14
    },
    {
      "block": "betternether:jellyfish_mushroom",
      "color": "#jellyfish_mushroom_weight_average_color",
      "radius": 12
    },
    {
      "block": "betternether:eyeball",
      "color": "#eyeball_weight_average_color",
      "radius": 14
    },
    {
      "block": "betternether:eyeball_small",
      "color": "#eyeball_small_weight_average_color",
      "radius": 14
    },
    {
      "block": "betternether:lumabus_seed",
      "color": "#lumabus_seed_weight_average_color",
      "radius": 9
    },
    {
      "block": "betternether:golden_lumabus_seed",
      "color": "#golden_lumabus_seed_weight_average_color",
      "radius": 9
    }
  ],
  "Bloom": [
    {
      "block": "betternether:willow_torch"
    },
    {
      "block": "betternether:cincinnasite_lantern"
    },
    {
      "block": "betternether:cincinnasite_lantern_small"
    },
    {
      "block": "betternether:nether_redstone_ore",
      "state": {
        "lit": "true"
      }
    },
    {
      "block": "betternether:blue_weeping_obsidian"
    },
    {
      "block": "betternether:weeping_obsidian"
    },
    {
      "block": "betternether:blue_crying_obsidian"
    },
    {
      "block": "betternether:lucis_spore"
    },
    {
      "block": "betternether:giant_lucis"
    },
    {
      "block": "betternether:giant_mold_sapling"
    },
    {
      "block": "betternether:jellyfish_mushroom_sapling"
    },
    {
      "block": "betternether:eye_seed"
    },
    {
      "block": "betternether:golden_vine"
    },
    {
      "block": "betternether:ink_bush_seed"
    },
    {
      "block": "betternether:black_apple_seed"
    },
    {
      "block": "betternether:neon_equisetum"
    },
    {
      "block": "betternether:hook_mushroom"
    },
    {
      "block": "betternether:whispering_gourd_lantern"
    },
    {
      "block": "betternether:pig_statue_respawner"
    },
    {
      "block": "betternether:geyser"
    },
    {
      "block": "betternether:glowstone_stalactite"
    },
    {
      "block": "betternether:blackstone_furnace",
      "state": {
        "lit": "true"
      }
    },
    {
      "block": "betternether:basalt_furnace",
      "state": {
        "lit": "true"
      }
    },
    {
      "block": "betternether:netherrack_furnace",
      "state": {
        "lit": "true"
      }
    },
    {
      "block": "betternether:cincinnasite_forge",
      "state": {
        "lit": "true"
      }
    },
    {
      "block": "betternether:nether_brewing_stand"
    },
    {
      "block": "betternether:rubeus_cone"
    },
    {
      "block": "betternether:nether_sakura_leaves"
    },
    {
      "block": "betternether:soul_lily_sapling"
    },
    {
      "block": "betternether:lucis_mushroom"
    },
    {
      "block": "betternether:jellyfish_mushroom"
    },
    {
      "block": "betternether:eyeball"
    },
    {
      "block": "betternether:eyeball_small"
    },
    {
      "block": "betternether:lumabus_seed"
    },
    {
      "block": "betternether:golden_lumabus_seed"
    }
  ],
  "LightItem": [
    {
      "item_id": "betternether:willow_torch",
      "color": "#willow_torch_weight_average_color",
      "radius": 14
    },
    {
      "item_id": "betternether:cincinnasite_lantern",
      "color": "#cincinnasite_lantern_weight_average_color",
      "radius": 15
    },
    {
      "item_id": "betternether:cincinnasite_lantern_small",
      "color": "#cincinnasite_lantern_small_weight_average_color",
      "radius": 15
    },
    {
      "item_id": "betternether:lucis_spore",
      "color": "#lucis_spore_weight_average_color",
      "radius": 6
    },
    {
      "item_id": "betternether:giant_lucis",
      "color": "#giant_lucis_weight_average_color",
      "radius": 15
    },
    {
      "item_id": "betternether:giant_mold_sapling",
      "color": "#giant_mold_sapling_weight_average_color",
      "radius": 6
    },
    {
      "item_id": "betternether:jellyfish_mushroom_sapling",
      "color": "#jellyfish_mushroom_sapling_weight_average_color",
      "radius": 8
    },
    {
      "item_id": "betternether:eye_seed",
      "color": "#eye_seed_weight_average_color",
      "radius": 9
    },
    {
      "item_id": "betternether:golden_vine",
      "color": "#golden_vine_weight_average_color",
      "radius": 15
    },
    {
      "item_id": "betternether:ink_bush_seed",
      "color": "#ink_bush_seed_weight_average_color",
      "radius": 10
    },
    {
      "item_id": "betternether:black_apple_seed",
      "color": "#black_apple_seed_weight_average_color",
      "radius": 9
    },
    {
      "item_id": "betternether:neon_equisetum",
      "color": "#neon_equisetum_weight_average_color",
      "radius": 15
    },
    {
      "item_id": "betternether:hook_mushroom",
      "color": "#hook_mushroom_weight_average_color",
      "radius": 12
    },
    {
      "item_id": "betternether:whispering_gourd_lantern",
      "color": "#whispering_gourd_lantern_weight_average_color",
      "radius": 15
    },
    {
      "item_id": "betternether:pig_statue_respawner",
      "color": "#pig_statue_respawner_weight_average_color",
      "radius": 15
    },
    {
      "item_id": "betternether:geyser",
      "color": "#geyser_weight_average_color",
      "radius": 10
    },
    {
      "item_id": "betternether:glowstone_stalactite",
      "color": "#glowstone_stalactite_weight_average_color",
      "radius": 14
    },
    {
      "item_id": "betternether:blackstone_furnace",
      "color": "#blackstone_furnace_weight_average_color",
      "radius": 13
    },
    {
      "item_id": "betternether:basalt_furnace",
      "color": "#basalt_furnace_weight_average_color",
      "radius": 13
    },
    {
      "item_id": "betternether:netherrack_furnace",
      "color": "#netherrack_furnace_weight_average_color",
      "radius": 13
    },
    {
      "item_id": "betternether:cincinnasite_forge",
      "color": "#cincinnasite_forge_weight_average_color",
      "radius": 13
    },
    {
      "item_id": "betternether:nether_brewing_stand",
      "color": "#nether_brewing_stand_weight_average_color",
      "radius": 1
    },
    {
      "item_id": "betternether:rubeus_cone",
      "color": "#rubeus_cone_weight_average_color",
      "radius": 15
    },
    {
      "item_id": "betternether:nether_sakura_leaves",
      "color": "#nether_sakura_leaves_weight_average_color",
      "radius": 13
    },
    {
      "item_id": "betternether:soul_lily_sapling",
      "color": "#soul_lily_sapling_weight_average_color",
      "radius": 9
    },
    {
      "item_id": "betternether:eyeball",
      "color": "#eyeball_weight_average_color",
      "radius": 14
    },
    {
      "item_id": "betternether:eyeball_small",
      "color": "#eyeball_small_weight_average_color",
      "radius": 14
    },
    {
      "item_id": "betternether:lumabus_seed",
      "color": "#lumabus_seed_weight_average_color",
      "radius": 9
    },
    {
      "item_id": "betternether:golden_lumabus_seed",
      "color": "#golden_lumabus_seed_weight_average_color",
      "radius": 9
    }
  ]
}